{
  "project_info": {
    "project_number": "442711473121",
    "firebase_url": "https://netwarmonitor-173022.firebaseio.com",
    "project_id": "netwarmonitor-173022",
    "storage_bucket": "netwarmonitor-173022.appspot.com"
  },
  "client": [
    {
      "client_info": {
        "mobilesdk_app_id": "1:442711473121:android:64ec13c31d9469db",
        "android_client_info": {
          "package_name": "com.perafan.netwarmonitor.netwarmonitor"
        }
      },
      "oauth_client": [
        {
          "client_id": "442711473121-u6aans7vv5onbl36uiq6kc09ln6cnll5.apps.googleusercontent.com",
          "client_type": 1,
          "android_info": {
            "package_name": "com.perafan.netwarmonitor.netwarmonitor",
            "certificate_hash": "3809af2504b28f0fd3db581f58e40b2e20a94ef6"
          }
        },
        {
          "client_id": "442711473121-6o2jrhtpktgnit5j959rukctihhn6tk4.apps.googleusercontent.com",
          "client_type": 3
        }
      ],
      "api_key": [
        {
          "current_key": "AIzaSyBDACICnJZYZdo1Y_9bM0grzhaghQVXkzg"
        }
      ],
      "services": {
        "analytics_service": {
          "status": 1
        },
        "appinvite_service": {
          "status": 2,
          "other_platform_oauth_client": [
            {
              "client_id": "442711473121-6o2jrhtpktgnit5j959rukctihhn6tk4.apps.googleusercontent.com",
              "client_type": 3
            }
          ]
        },
        "ads_service": {
          "status": 2
        }
      }
    }
  ],
  "configuration_version": "1"
}